com\myindo\project\inquirydetaillistpengajuancuti\dao\GetDetailListPCuti.class
com\myindo\project\inquirydetaillistpengajuancuti\model\ResponseContentModel.class
com\myindo\project\inquirydetaillistpengajuancuti\model\HasilDataKaryawan.class
com\myindo\project\inquirydetaillistpengajuancuti\processor\ProcessInquiryDetailCuti.class
com\myindo\project\inquirydetaillistpengajuancuti\model\RequestModel.class
com\myindo\project\inquirydetaillistpengajuancuti\dao\GetDetailKaryawan.class
com\myindo\project\inquirydetaillistpengajuancuti\util\ParameterizedDB.class
com\myindo\project\inquirydetaillistpengajuancuti\connection\Connect.class
com\myindo\project\inquirydetaillistpengajuancuti\model\ResponseModel.class
com\myindo\project\inquirydetaillistpengajuancuti\model\ParameterDB.class
com\myindo\project\inquirydetaillistpengajuancuti\controller\Resource.class
com\myindo\project\inquirydetaillistpengajuancuti\model\HasilPengajuanCuti.class
